{
  "type": "application",
  "source-directories": ["src"],
  "elm-version": "0.19.1",
  "dependencies": {
    "direct": {
      "anmolitor/elm-review-tailwindcss": "1.0.2",
      "elm/core": "1.0.5",
      "jfmengels/elm-review": "2.15.0",
      "jfmengels/elm-review-performance": "1.0.2",
      "jfmengels/elm-review-unused": "1.1.28",
      "misoton665/elm-review-module-layer-dependency": "1.0.0",
      "noredink/elm-review-html-lazy": "1.0.0",
      "sparksp/elm-review-ports": "1.3.1",
      "stil4m/elm-syntax": "7.3.8"
    },
    "indirect": {
      "elm/bytes": "1.0.8",
      "elm/html": "1.0.0",
      "elm/json": "1.1.3",
      "elm/parser": "1.1.0",
      "elm/project-metadata-utils": "1.0.2",
      "elm/random": "1.0.0",
      "elm/regex": "1.0.0",
      "elm/time": "1.0.0",
      "elm/virtual-dom": "1.0.3",
      "elm-explorations/test": "2.0.1",
      "miniBill/elm-unicode": "1.0.2",
      "rtfeldman/elm-hex": "1.0.0",
      "stil4m/structured-writer": "1.0.3"
    }
  },
  "test-dependencies": {
    "direct": {
      "elm-explorations/test": "2.0.1"
    },
    "indirect": {}
  }
}
