<svg width="386.57" height="531.704" viewBox="0 0 102.28 140.68" xmlns="http://www.w3.org/2000/svg">
  <g transform="translate(-49.672 -127.35)">
    <rect x="70.115" y="128.64" width="10.691" height="28.865" ry=".109" fill="#e8d18e" stroke="#dfaa4f"
      stroke-linecap="round" stroke-linejoin="round" stroke-width="2.566" paint-order="stroke fill markers" />
    <rect x="121.55" y="128.89" width="10.691" height="28.865" ry=".109" fill="#e8d18e" stroke="#dfaa4f"
      stroke-linecap="round" stroke-linejoin="round" stroke-width="2.566" paint-order="stroke fill markers" />
    <path
      d="M133.63 266.76H66.074s-6.544-1.333-10.427-12.496c-3.471-9.98-3.86-53.366-3.86-53.366s6.998-14.535 14.226-19.261c7.778-5.086 21.538-8.75 35.095-9.34 11.276-.491 26.836 4.137 34.583 8.684 5.944 3.49 14.143 17.784 14.143 17.784s-.143 37.868-4.288 53c-4.143 15.12-11.916 14.995-11.916 14.995z"
      fill="#999" stroke="#999" stroke-width="2.552" />
    <path
      d="M133.99 259.84H65.707s-6.614-1.333-10.539-12.496c-3.509-9.98-3.9-53.366-3.9-53.366s7.072-14.535 14.378-19.261c7.863-5.086 21.77-8.75 35.472-9.34 11.397-.491 27.125 4.137 34.956 8.684 6.009 3.49 14.295 17.784 14.295 17.784s-.144 37.868-4.334 53c-4.187 15.12-12.045 14.995-12.045 14.995z"
      fill="#e8d18e" stroke="#dfaa4f" stroke-width="2.566" />
    <path
      d="M67.469 149.04H136.1s6.648.736 10.593 6.9c3.526 5.51 3.92 29.467 3.92 29.467s-7.108 8.025-14.451 10.635c-7.903 2.808-21.881 4.831-35.653 5.157-11.456.271-27.263-2.284-35.134-4.795-6.04-1.927-14.368-9.82-14.368-9.82s.145-20.909 4.356-29.265c4.208-8.349 12.106-8.28 12.106-8.28z"
      fill="#e8d18e" stroke="#dfaa4f" stroke-width="1.912" />
    <path
      d="M100.85 176.68a24.322 24.322 0 00-24.188 21.817c3.703.651 7.71 1.205 11.675 1.58a12.549 12.549 0 0112.513-11.624 12.549 12.549 0 0112.487 11.299c4.12-.414 8.059-.963 11.635-1.62a24.322 24.322 0 00-24.122-21.451z"
      fill="#878e8e" />
    <rect x="82.638" y="204.79" width="36.349" height="53.721" ry=".117" fill="#dfaa4f"
      paint-order="stroke fill markers" />
    <path
      d="M151.64 183.18c-.208.234-7.372 8.238-14.802 10.878-8.115 2.884-22.468 4.962-36.61 5.296-11.763.278-27.995-2.345-36.076-4.924-5.29-1.687-12.244-7.794-14.188-9.564-.267 4.346-.291 7.484-.291 7.484s8.552 8.104 14.754 10.083c8.081 2.578 24.314 5.202 36.077 4.924 14.142-.334 28.495-2.412 36.61-5.296 7.54-2.68 14.84-10.92 14.84-10.92s-.057-3.402-.313-7.961z"
      fill="#999" />
  </g>
</svg>