<svg width="51.027mm" height="43.543mm" version="1.1" viewBox="0 0 51.027 43.543" xmlns="http://www.w3.org/2000/svg">
  <g transform="translate(-37.042 -56.607)" fill="param(fill)">
    <path transform="scale(.26458)"
      d="m172.86 213.95c-18.203 0-32.857 11.413-32.857 25.59v81.676c0 14.177 14.655 25.59 32.857 25.59h127.14c18.203 0 32.857-11.413 32.857-25.59v-81.676c0-14.177-14.655-25.59-32.857-25.59zm23.143 29.143h77.143c18.203 0 32.857 1.6202 32.857 3.6348v2.7285c0 2.0145-14.655 3.6367-32.857 3.6367h-77.143c-18.203 0-32.857-1.6222-32.857-3.6367v-2.7285c0-2.0145 14.655-3.6348 32.857-3.6348zm0 30h77.143c18.203 0 32.857 1.6202 32.857 3.6348v2.7285c0 2.0145-14.655 3.6367-32.857 3.6367h-77.143c-18.203 0-32.857-1.6222-32.857-3.6367v-2.7285c0-2.0145 14.655-3.6348 32.857-3.6348zm-11.172 32h50.914c12.014 0 21.686 1.6202 21.686 3.6348v2.7285c0 2.0145-9.6716 3.6367-21.686 3.6367h-50.914c-12.014 0-21.686-1.6222-21.686-3.6367v-2.7285c0-2.0145 9.6716-3.6348 21.686-3.6348z"
      style="paint-order:stroke fill markers" />
    <path d="m45.282 100.15 0.73608-17.056 14.403 9.1654z" style="paint-order:stroke fill markers" />
  </g>
</svg>